SBC Interface Introduction • SBC
…
Computing Ranks

we can then use compute_results to fit our datasets with the backend:

results <- compute_results(poisson_dataset, poisson_backend)

Viewing Results

We can now inspect the results to see if there were any errors and check individual stats:

results$stats

## # A tibble: 100 × 15
##    parameter simulated_value  rank z_score  mean median    sd   mad    q5   q95
##    <chr>               <dbl> <dbl>   <dbl> <dbl>  <dbl> <dbl> <dbl> <dbl> <dbl>
##  1 lambda               6.39   111   0.241  6.30   6.30 0.373 0.384  5.74  6.94
##  2 lambda               4.01    39  -0.774  4.25   4.25 0.309 0.312  3.74  4.78
##  3 lambda               2.28    83  -0.215  2.33   2.31 0.220 0.218  1.99  2.71
##  4 lambda               4.21   125   0.214  4.15   4.13 0.307 0.319  3.66  4.68
##  5 lambda               2.47    27  -1.25   2.78   2.78 0.251 0.251  2.36  3.19
##  6 lambda               3.86   179   1.20   3.53   3.54 0.275 0.274  3.08  3.99
##  7 lambda               2.89   151   0.503  2.76   2.75 0.258 0.259  2.35  3.20
##  8 lambda               3.72   137   0.498  3.58   3.57 0.280 0.269  3.13  4.04
##  9 lambda               4.32    35  -0.725  4.55   4.55 0.316 0.318  4.04  5.07
## 10 lambda               3.55   102   0.116  3.52   3.52 0.276 0.275  3.05  3.97
## # … with 90 more rows, and 5 more variables: rhat <dbl>, ess_bulk <dbl>,
## #   ess_tail <dbl>, max_rank <int>, dataset_id <int>
…
