SBC with discrete parameters in Stan and JAGS • SBC
…
TODO the diagnostic failures are false positives, because Rhat and
ESS don’t work very well for discrete parameters. We need to figure out
how to handle this better.

We can quickly note that the statistics for the s
parameter are extreme - many ranks of 0 and extreme z-scores,
including -Infinity. Seing just one or two such fits should be enough to
convince us that there is something fundamentally wrong.

dplyr::filter(results_1$stats, variable == "s") 

## # A tibble: 30 × 15
##    sim_id variable simulated_value  rank   z_score  mean median    sd   mad
##     <int> <chr>              <dbl> <dbl>     <dbl> <dbl>  <dbl> <dbl> <dbl>
##  1      1 s                      3   185    0.0182  2.97      3 1.61   2.97
##  2      2 s                      1    24   -1.90    2.02      2 0.537  0   
##  3      3 s                      4   126   -1.37    4.67      5 0.489  0   
##  4      4 s                      1    10   -2.85    2.86      3 0.651  0   
##  5      5 s                      5   397    2.76    2.86      3 0.775  0   
##  6      6 s                      2   271    0.0449  1.94      1 1.42   0   
##  7      7 s                      3     0 -Inf       4         4 0      0   
##  8      8 s                      2   129   -0.594   2.87      3 1.46   1.48
##  9      9 s                      2     0   -6.84    2.99      3 0.144  0   
## 10     10 s                      2     3   -8.68    3.00      3 0.115  0   
## # … with 20 more rows, and 6 more variables: q5 <dbl>, q95 <dbl>, rhat <dbl>,
## #   ess_bulk <dbl>, ess_tail <dbl>, max_rank <int>
…
