Getting Started with SBC • SBC
…
Here we also use the caching feature to avoid recomputing the fits
when recompiling this vignette. In practice, caching is not necessary
but is often useful.

Viewing Results

We can now inspect the results to see if there were any errors and
check individual stats:

results$stats

## # A tibble: 100 × 15
##    sim_id variable simulated_value  rank z_score  mean median    sd   mad    q5
##     <int> <chr>              <dbl> <dbl>   <dbl> <dbl>  <dbl> <dbl> <dbl> <dbl>
##  1      1 lambda              1.44    10  -1.46   1.74   1.73 0.202 0.200  1.42
##  2      2 lambda              2.99    74  -0.226  3.05   3.04 0.265 0.262  2.63
##  3      3 lambda              2.51    44  -0.740  2.69   2.68 0.249 0.253  2.29
##  4      4 lambda              2.86    59  -0.666  3.04   3.03 0.265 0.256  2.63
##  5      5 lambda              2.97   181   1.28   2.66   2.66 0.244 0.244  2.27
##  6      6 lambda              2.54   157   0.819  2.35   2.35 0.237 0.246  1.97
##  7      7 lambda              2.65    17  -1.48   3.04   3.03 0.268 0.274  2.61
##  8      8 lambda              2.99   125   0.319  2.91   2.90 0.258 0.263  2.49
##  9      9 lambda              2.55    20  -1.22   2.87   2.86 0.255 0.250  2.46
## 10     10 lambda              1.73     8  -1.56   2.05   2.04 0.209 0.211  1.71
## # … with 90 more rows, and 5 more variables: q95 <dbl>, rhat <dbl>,
## #   ess_bulk <dbl>, ess_tail <dbl>, max_rank <int>
…
