Small model workflow • SBC
…
results_fixed_ordered <- compute_results(datasets_ordered_10, backend_fixed_ordered)

##  - 2 (20%) fits had at least one Rhat > 1.01. Largest Rhat was 1.207.

##  - 2 (20%) fits had tail ESS undefined or less than half of the maximum rank, potentially skewing the rank statistics. The lowest tail ESS was NA.
##  If the fits look good otherwise, increasing `thin_ranks` (via recompute_statistcs) or number of posterior samples (by refitting) might help.

##  - 2 (20%) fits had divergent transitions. Maximum number of divergences was 145.

## Not all diagnostics are OK. You can learn more by inspecting $default_diagnostics, $backend_diagnostics and/or investigating $outputs/$messages/$warnings for detailed output from the backend.

results_fixed_ordered$stats

## # A tibble: 30 x 15
##    parameter simulated_value  rank z_score  mean median     sd    mad     q5
##    <chr>               <dbl> <dbl>   <dbl> <dbl>  <dbl>  <dbl>  <dbl>  <dbl>
##  1 mu[1]               0.475    99  -0.400 0.559  0.605 0.211  0.162  0.151 
##  2 mu[2]               0.773    34  -0.891 1.75   1.27  1.09   0.631  0.706 
##  3 theta               0.282    23  -1.92  0.773  0.890 0.256  0.152  0.217 
##  4 mu[1]               3.06    304   0.778 2.95   3.00  0.140  0.0872 2.64  
##  5 mu[2]               3.13    240  -0.208 3.19   3.12  0.269  0.0650 3.05  
##  6 theta               0.650   282   0.538 0.466  0.431 0.341  0.485  0.0171
##  7 mu[1]               1.85      4  -2.31  2.02   2.02  0.0733 0.0753 1.90  
##  8 mu[2]               3.30    143  -0.334 3.32   3.32  0.0395 0.0397 3.25  
##  9 theta               0.511   172  -0.115 0.519  0.519 0.0719 0.0733 0.401 
## 10 mu[1]               2.70    374   1.41  2.62   2.62  0.0566 0.0564 2.52  
## # ... with 20 more rows, and 6 more variables: q95 <dbl>, rhat <dbl>,
## #   ess_bulk <dbl>, ess_tail <dbl>, max_rank <int>, dataset_id <int>
…
